{
  "instance_url": "HOST",
  "instance_port": "PORT",
  "instance_port_socket": "WS_PORT",
  "access_pk": "ACCESS_PK",
  "ssl_key": "SSL_KEY_PATH",
  "ssl_cert": "SSL_CERT_PATH",
  "ssl_ca": "SSL_CA_PATH",
  "root_node": {
    "url": "ROOT_NODE_URL",
    "port": "ROOT_NODE_PORT"
  },
  "database": {
    "url": "DATABASE_URL",
    "host": "DATABASE_HOST",
    "port": "DATABASE_PORT",
    "name": "DATABASE_NAME"
  },
  "cron_pk": "CRON_PK"
}
